<?xml version="1.0" standalone="no"?>
<!DOCTYPE svg PUBLIC "-//W3C//DTD SVG 1.1//EN" "http://www.w3.org/Graphics/SVG/1.1/DTD/svg11.dtd">
<svg xmlns="http://www.w3.org/2000/svg">
<metadata>Copyright (C) 2014 by original authors @ fontello.com</metadata>
<defs>
<font id="fontello" horiz-adv-x="1000" >
<font-face font-family="fontello" font-weight="400" font-stretch="normal" units-per-em="1000" ascent="850" descent="-150" />
<missing-glyph horiz-adv-x="1000" />
<glyph glyph-name="github" unicode="&#xe802;" d="m620 286q26 0 45-26t19-64-19-64-45-26q-28 0-47 26t-19 64 19 64 47 26z m226 234q74-80 74-194 0-74-17-133t-43-96-64-65-70-41-73-20-62-8-45-1q-6 0-36-1t-50-1-50 1-36 1q-24 0-45 1t-62 8-73 20-70 41-64 65-43 96-17 133q0 114 74 194-8 4-1 80t33 140q92-10 228-104 46 12 126 12 84 0 126-12 62 42 119 68t83 30l26 6q26-64 33-140t-1-80z m-384-514q166 0 251 40t85 164q0 72-54 120-28 26-65 32t-113 0-104-6l-4 0q-32 0-83 4t-80 5-63-7-56-28q-52-46-52-120 0-124 84-164t250-40l4 0z m-160 280q26 0 45-26t19-64-19-64-45-26q-28 0-47 26t-19 64 19 64 47 26z" horiz-adv-x="920" />
</font>
</defs>
</svg>